%YAML 1.1
%TAG !u! tag:unity3d.com,2011:
--- !u!1 &1419808729786965374
GameObject:
  m_ObjectHideFlags: 0
  m_CorrespondingSourceObject: {fileID: 0}
  m_PrefabInstance: {fileID: 0}
  m_PrefabAsset: {fileID: 0}
  serializedVersion: 6
  m_Component:
  - component: {fileID: 6548043617485647392}
  - component: {fileID: 1377035612044230951}
  - component: {fileID: 4800088440001801884}
  m_Layer: 0
  m_Name: Layer1
  m_TagString: Untagged
  m_Icon: {fileID: 0}
  m_NavMeshLayer: 0
  m_StaticEditorFlags: 0
  m_IsActive: 1
--- !u!4 &6548043617485647392
Transform:
  m_ObjectHideFlags: 0
  m_CorrespondingSourceObject: {fileID: 0}
  m_PrefabInstance: {fileID: 0}
  m_PrefabAsset: {fileID: 0}
  m_GameObject: {fileID: 1419808729786965374}
  m_LocalRotation: {x: -0, y: -0, z: -0, w: 1}
  m_LocalPosition: {x: 0, y: 0, z: 0}
  m_LocalScale: {x: 1, y: 1, z: 1}
  m_ConstrainProportionsScale: 0
  m_Children: []
  m_Father: {fileID: 8338131448701475920}
  m_RootOrder: -1
  m_LocalEulerAnglesHint: {x: 0, y: 0, z: 0}
--- !u!1839735485 &1377035612044230951
Tilemap:
  m_ObjectHideFlags: 0
  m_CorrespondingSourceObject: {fileID: 0}
  m_PrefabInstance: {fileID: 0}
  m_PrefabAsset: {fileID: 0}
  m_GameObject: {fileID: 1419808729786965374}
  m_Enabled: 1
  m_Tiles:
  - first: {x: 3, y: -5, z: 0}
    second:
      serializedVersion: 2
      m_TileIndex: 19
      m_TileSpriteIndex: 19
      m_TileMatrixIndex: 0
      m_TileColorIndex: 0
      m_TileObjectToInstantiateIndex: 65535
      dummyAlignment: 0
      m_AllTileFlags: 1073741825
  - first: {x: 8, y: -5, z: 0}
    second:
      serializedVersion: 2
      m_TileIndex: 23
      m_TileSpriteIndex: 23
      m_TileMatrixIndex: 0
      m_TileColorIndex: 0
      m_TileObjectToInstantiateIndex: 65535
      dummyAlignment: 0
      m_AllTileFlags: 1073741825
  - first: {x: 9, y: -5, z: 0}
    second:
      serializedVersion: 2
      m_TileIndex: 31
      m_TileSpriteIndex: 31
      m_TileMatrixIndex: 0
      m_TileColorIndex: 0
      m_TileObjectToInstantiateIndex: 65535
      dummyAlignment: 0
      m_AllTileFlags: 1073741825
  - first: {x: 10, y: -5, z: 0}
    second:
      serializedVersion: 2
      m_TileIndex: 32
      m_TileSpriteIndex: 32
      m_TileMatrixIndex: 0
      m_TileColorIndex: 0
      m_TileObjectToInstantiateIndex: 65535
      dummyAlignment: 0
      m_AllTileFlags: 1073741825
  - first: {x: 11, y: -5, z: 0}
    second:
      serializedVersion: 2
      m_TileIndex: 33
      m_TileSpriteIndex: 33
      m_TileMatrixIndex: 0
      m_TileColorIndex: 0
      m_TileObjectToInstantiateIndex: 65535
      dummyAlignment: 0
      m_AllTileFlags: 1073741825
  - first: {x: 12, y: -5, z: 0}
    second:
      serializedVersion: 2
      m_TileIndex: 34
      m_TileSpriteIndex: 34
      m_TileMatrixIndex: 0
      m_TileColorIndex: 0
      m_TileObjectToInstantiateIndex: 65535
      dummyAlignment: 0
      m_AllTileFlags: 1073741825
  - first: {x: 13, y: -5, z: 0}
    second:
      serializedVersion: 2
      m_TileIndex: 35
      m_TileSpriteIndex: 35
      m_TileMatrixIndex: 0
      m_TileColorIndex: 0
      m_TileObjectToInstantiateIndex: 65535
      dummyAlignment: 0
      m_AllTileFlags: 1073741825
  - first: {x: 14, y: -5, z: 0}
    second:
      serializedVersion: 2
      m_TileIndex: 36
      m_TileSpriteIndex: 36
      m_TileMatrixIndex: 0
      m_TileColorIndex: 0
      m_TileObjectToInstantiateIndex: 65535
      dummyAlignment: 0
      m_AllTileFlags: 1073741825
  - first: {x: -2, y: -4, z: 0}
    second:
      serializedVersion: 2
      m_TileIndex: 11
      m_TileSpriteIndex: 11
      m_TileMatrixIndex: 0
      m_TileColorIndex: 0
      m_TileObjectToInstantiateIndex: 65535
      dummyAlignment: 0
      m_AllTileFlags: 1073741825
  - first: {x: -1, y: -4, z: 0}
    second:
      serializedVersion: 2
      m_TileIndex: 12
      m_TileSpriteIndex: 12
      m_TileMatrixIndex: 0
      m_TileColorIndex: 0
      m_TileObjectToInstantiateIndex: 65535
      dummyAlignment: 0
      m_AllTileFlags: 1073741825
  - first: {x: 0, y: -4, z: 0}
    second:
      serializedVersion: 2
      m_TileIndex: 13
      m_TileSpriteIndex: 13
      m_TileMatrixIndex: 0
      m_TileColorIndex: 0
      m_TileObjectToInstantiateIndex: 65535
      dummyAlignment: 0
      m_AllTileFlags: 1073741825
  - first: {x: 1, y: -4, z: 0}
    second:
      serializedVersion: 2
      m_TileIndex: 14
      m_TileSpriteIndex: 14
      m_TileMatrixIndex: 0
      m_TileColorIndex: 0
      m_TileObjectToInstantiateIndex: 65535
      dummyAlignment: 0
      m_AllTileFlags: 1073741825
  - first: {x: 2, y: -4, z: 0}
    second:
      serializedVersion: 2
      m_TileIndex: 15
      m_TileSpriteIndex: 15
      m_TileMatrixIndex: 0
      m_TileColorIndex: 0
      m_TileObjectToInstantiateIndex: 65535
      dummyAlignment: 0
      m_AllTileFlags: 1073741825
  - first: {x: 3, y: -4, z: 0}
    second:
      serializedVersion: 2
      m_TileIndex: 16
      m_TileSpriteIndex: 16
      m_TileMatrixIndex: 0
      m_TileColorIndex: 0
      m_TileObjectToInstantiateIndex: 65535
      dummyAlignment: 0
      m_AllTileFlags: 1073741825
  - first: {x: 4, y: -4, z: 0}
    second:
      serializedVersion: 2
      m_TileIndex: 17
      m_TileSpriteIndex: 17
      m_TileMatrixIndex: 0
      m_TileColorIndex: 0
      m_TileObjectToInstantiateIndex: 65535
      dummyAlignment: 0
      m_AllTileFlags: 1073741825
  - first: {x: 5, y: -4, z: 0}
    second:
      serializedVersion: 2
      m_TileIndex: 18
      m_TileSpriteIndex: 18
      m_TileMatrixIndex: 0
      m_TileColorIndex: 0
      m_TileObjectToInstantiateIndex: 65535
      dummyAlignment: 0
      m_AllTileFlags: 1073741825
  - first: {x: 6, y: -4, z: 0}
    second:
      serializedVersion: 2
      m_TileIndex: 20
      m_TileSpriteIndex: 20
      m_TileMatrixIndex: 0
      m_TileColorIndex: 0
      m_TileObjectToInstantiateIndex: 65535
      dummyAlignment: 0
      m_AllTileFlags: 1073741825
  - first: {x: 7, y: -4, z: 0}
    second:
      serializedVersion: 2
      m_TileIndex: 21
      m_TileSpriteIndex: 21
      m_TileMatrixIndex: 0
      m_TileColorIndex: 0
      m_TileObjectToInstantiateIndex: 65535
      dummyAlignment: 0
      m_AllTileFlags: 1073741825
  - first: {x: 8, y: -4, z: 0}
    second:
      serializedVersion: 2
      m_TileIndex: 22
      m_TileSpriteIndex: 22
      m_TileMatrixIndex: 0
      m_TileColorIndex: 0
      m_TileObjectToInstantiateIndex: 65535
      dummyAlignment: 0
      m_AllTileFlags: 1073741825
  - first: {x: 9, y: -4, z: 0}
    second:
      serializedVersion: 2
      m_TileIndex: 30
      m_TileSpriteIndex: 30
      m_TileMatrixIndex: 0
      m_TileColorIndex: 0
      m_TileObjectToInstantiateIndex: 65535
      dummyAlignment: 0
      m_AllTileFlags: 1073741825
  - first: {x: 14, y: -4, z: 0}
    second:
      serializedVersion: 2
      m_TileIndex: 37
      m_TileSpriteIndex: 37
      m_TileMatrixIndex: 0
      m_TileColorIndex: 0
      m_TileObjectToInstantiateIndex: 65535
      dummyAlignment: 0
      m_AllTileFlags: 1073741825
  - first: {x: -2, y: -3, z: 0}
    second:
      serializedVersion: 2
      m_TileIndex: 9
      m_TileSpriteIndex: 9
      m_TileMatrixIndex: 0
      m_TileColorIndex: 0
      m_TileObjectToInstantiateIndex: 65535
      dummyAlignment: 0
      m_AllTileFlags: 1073741825
  - first: {x: -1, y: -3, z: 0}
    second:
      serializedVersion: 2
      m_TileIndex: 10
      m_TileSpriteIndex: 10
      m_TileMatrixIndex: 0
      m_TileColorIndex: 0
      m_TileObjectToInstantiateIndex: 65535
      dummyAlignment: 0
      m_AllTileFlags: 1073741825
  - first: {x: 3, y: -3, z: 0}
    second:
      serializedVersion: 2
      m_TileIndex: 26
      m_TileSpriteIndex: 26
      m_TileMatrixIndex: 0
      m_TileColorIndex: 0
      m_TileObjectToInstantiateIndex: 65535
      dummyAlignment: 0
      m_AllTileFlags: 1073741825
  - first: {x: 6, y: -3, z: 0}
    second:
      serializedVersion: 2
      m_TileIndex: 29
      m_TileSpriteIndex: 29
      m_TileMatrixIndex: 0
      m_TileColorIndex: 0
      m_TileObjectToInstantiateIndex: 65535
      dummyAlignment: 0
      m_AllTileFlags: 1073741825
  - first: {x: 7, y: -3, z: 0}
    second:
      serializedVersion: 2
      m_TileIndex: 39
      m_TileSpriteIndex: 39
      m_TileMatrixIndex: 0
      m_TileColorIndex: 0
      m_TileObjectToInstantiateIndex: 65535
      dummyAlignment: 0
      m_AllTileFlags: 1073741825
  - first: {x: 8, y: -3, z: 0}
    second:
      serializedVersion: 2
      m_TileIndex: 40
      m_TileSpriteIndex: 40
      m_TileMatrixIndex: 0
      m_TileColorIndex: 0
      m_TileObjectToInstantiateIndex: 65535
      dummyAlignment: 0
      m_AllTileFlags: 1073741825
  - first: {x: 9, y: -3, z: 0}
    second:
      serializedVersion: 2
      m_TileIndex: 41
      m_TileSpriteIndex: 41
      m_TileMatrixIndex: 0
      m_TileColorIndex: 0
      m_TileObjectToInstantiateIndex: 65535
      dummyAlignment: 0
      m_AllTileFlags: 1073741825
  - first: {x: 10, y: -3, z: 0}
    second:
      serializedVersion: 2
      m_TileIndex: 42
      m_TileSpriteIndex: 42
      m_TileMatrixIndex: 0
      m_TileColorIndex: 0
      m_TileObjectToInstantiateIndex: 65535
      dummyAlignment: 0
      m_AllTileFlags: 1073741825
  - first: {x: -2, y: -2, z: 0}
    second:
      serializedVersion: 2
      m_TileIndex: 6
      m_TileSpriteIndex: 6
      m_TileMatrixIndex: 0
      m_TileColorIndex: 0
      m_TileObjectToInstantiateIndex: 65535
      dummyAlignment: 0
      m_AllTileFlags: 1073741825
  - first: {x: -1, y: -2, z: 0}
    second:
      serializedVersion: 2
      m_TileIndex: 7
      m_TileSpriteIndex: 7
      m_TileMatrixIndex: 0
      m_TileColorIndex: 0
      m_TileObjectToInstantiateIndex: 65535
      dummyAlignment: 0
      m_AllTileFlags: 1073741825
  - first: {x: 0, y: -2, z: 0}
    second:
      serializedVersion: 2
      m_TileIndex: 8
      m_TileSpriteIndex: 8
      m_TileMatrixIndex: 0
      m_TileColorIndex: 0
      m_TileObjectToInstantiateIndex: 65535
      dummyAlignment: 0
      m_AllTileFlags: 1073741825
  - first: {x: 3, y: -2, z: 0}
    second:
      serializedVersion: 2
      m_TileIndex: 24
      m_TileSpriteIndex: 24
      m_TileMatrixIndex: 0
      m_TileColorIndex: 0
      m_TileObjectToInstantiateIndex: 65535
      dummyAlignment: 0
      m_AllTileFlags: 1073741825
  - first: {x: 4, y: -2, z: 0}
    second:
      serializedVersion: 2
      m_TileIndex: 25
      m_TileSpriteIndex: 25
      m_TileMatrixIndex: 0
      m_TileColorIndex: 0
      m_TileObjectToInstantiateIndex: 65535
      dummyAlignment: 0
      m_AllTileFlags: 1073741825
  - first: {x: 5, y: -2, z: 0}
    second:
      serializedVersion: 2
      m_TileIndex: 27
      m_TileSpriteIndex: 27
      m_TileMatrixIndex: 0
      m_TileColorIndex: 0
      m_TileObjectToInstantiateIndex: 65535
      dummyAlignment: 0
      m_AllTileFlags: 1073741825
  - first: {x: 6, y: -2, z: 0}
    second:
      serializedVersion: 2
      m_TileIndex: 28
      m_TileSpriteIndex: 28
      m_TileMatrixIndex: 0
      m_TileColorIndex: 0
      m_TileObjectToInstantiateIndex: 65535
      dummyAlignment: 0
      m_AllTileFlags: 1073741825
  - first: {x: 7, y: -2, z: 0}
    second:
      serializedVersion: 2
      m_TileIndex: 38
      m_TileSpriteIndex: 38
      m_TileMatrixIndex: 0
      m_TileColorIndex: 0
      m_TileObjectToInstantiateIndex: 65535
      dummyAlignment: 0
      m_AllTileFlags: 1073741825
  - first: {x: 10, y: -2, z: 0}
    second:
      serializedVersion: 2
      m_TileIndex: 43
      m_TileSpriteIndex: 43
      m_TileMatrixIndex: 0
      m_TileColorIndex: 0
      m_TileObjectToInstantiateIndex: 65535
      dummyAlignment: 0
      m_AllTileFlags: 1073741825
  - first: {x: -2, y: -1, z: 0}
    second:
      serializedVersion: 2
      m_TileIndex: 3
      m_TileSpriteIndex: 3
      m_TileMatrixIndex: 0
      m_TileColorIndex: 0
      m_TileObjectToInstantiateIndex: 65535
      dummyAlignment: 0
      m_AllTileFlags: 1073741825
  - first: {x: -1, y: -1, z: 0}
    second:
      serializedVersion: 2
      m_TileIndex: 4
      m_TileSpriteIndex: 4
      m_TileMatrixIndex: 0
      m_TileColorIndex: 0
      m_TileObjectToInstantiateIndex: 65535
      dummyAlignment: 0
      m_AllTileFlags: 1073741825
  - first: {x: 0, y: -1, z: 0}
    second:
      serializedVersion: 2
      m_TileIndex: 5
      m_TileSpriteIndex: 5
      m_TileMatrixIndex: 0
      m_TileColorIndex: 0
      m_TileObjectToInstantiateIndex: 65535
      dummyAlignment: 0
      m_AllTileFlags: 1073741825
  - first: {x: -2, y: 0, z: 0}
    second:
      serializedVersion: 2
      m_TileIndex: 0
      m_TileSpriteIndex: 0
      m_TileMatrixIndex: 0
      m_TileColorIndex: 0
      m_TileObjectToInstantiateIndex: 65535
      dummyAlignment: 0
      m_AllTileFlags: 1073741825
  - first: {x: -1, y: 0, z: 0}
    second:
      serializedVersion: 2
      m_TileIndex: 1
      m_TileSpriteIndex: 1
      m_TileMatrixIndex: 0
      m_TileColorIndex: 0
      m_TileObjectToInstantiateIndex: 65535
      dummyAlignment: 0
      m_AllTileFlags: 1073741825
  - first: {x: 0, y: 0, z: 0}
    second:
      serializedVersion: 2
      m_TileIndex: 2
      m_TileSpriteIndex: 2
      m_TileMatrixIndex: 0
      m_TileColorIndex: 0
      m_TileObjectToInstantiateIndex: 65535
      dummyAlignment: 0
      m_AllTileFlags: 1073741825
  m_AnimatedTiles: {}
  m_TileAssetArray:
  - m_RefCount: 1
    m_Data: {fileID: 11400000, guid: d7ee954d113840e48ae26875c0d99193, type: 2}
  - m_RefCount: 1
    m_Data: {fileID: 11400000, guid: a45a4c7eea967df459959eda92f7ac43, type: 2}
  - m_RefCount: 1
    m_Data: {fileID: 11400000, guid: b663e4954ae54b14193e8d4e41109122, type: 2}
  - m_RefCount: 1
    m_Data: {fileID: 11400000, guid: 517f079947ecfd14c8d852cb1cf901e6, type: 2}
  - m_RefCount: 1
    m_Data: {fileID: 11400000, guid: d213128bc02c8d74d8dbbf65fd6a5d57, type: 2}
  - m_RefCount: 1
    m_Data: {fileID: 11400000, guid: ee1ae13ce0ea3b2418118c81d60bd702, type: 2}
  - m_RefCount: 1
    m_Data: {fileID: 11400000, guid: f05fe59c99e768e45adea9ebcb878c75, type: 2}
  - m_RefCount: 1
    m_Data: {fileID: 11400000, guid: 8326aa7d71588404abe2956f04eb4318, type: 2}
  - m_RefCount: 1
    m_Data: {fileID: 11400000, guid: 3638ad84c2d99cd41b3f73a3f09ab310, type: 2}
  - m_RefCount: 1
    m_Data: {fileID: 11400000, guid: c57e616cd5b796b458ad85e14b813a2a, type: 2}
  - m_RefCount: 1
    m_Data: {fileID: 11400000, guid: 0cf66cbc84aa34a48a77055a6599d078, type: 2}
  - m_RefCount: 1
    m_Data: {fileID: 11400000, guid: 1f175bde7ba1a1848b29916529a3c0ca, type: 2}
  - m_RefCount: 1
    m_Data: {fileID: 11400000, guid: 86d4893a0d8536e4fb06f96e68dad7cc, type: 2}
  - m_RefCount: 1
    m_Data: {fileID: 11400000, guid: bdfb95f7c042ddd4d9ed15f8b8d91055, type: 2}
  - m_RefCount: 1
    m_Data: {fileID: 11400000, guid: 0fc54f7ffe3b9894bb821edab2eaa22c, type: 2}
  - m_RefCount: 1
    m_Data: {fileID: 11400000, guid: 5c8916323c85c2f4eb707d51f3e0592b, type: 2}
  - m_RefCount: 1
    m_Data: {fileID: 11400000, guid: 82a40f1b9db39c048af518c0076d89dc, type: 2}
  - m_RefCount: 1
    m_Data: {fileID: 11400000, guid: 73df0c07b0a47b942bdb40e13f416112, type: 2}
  - m_RefCount: 1
    m_Data: {fileID: 11400000, guid: 386db63ac217c5b4a8dfc0b5b9151efa, type: 2}
  - m_RefCount: 1
    m_Data: {fileID: 11400000, guid: 103041b2769900447922afe384685d4f, type: 2}
  - m_RefCount: 1
    m_Data: {fileID: 11400000, guid: 9ac74776f356944469675168f3f46fbd, type: 2}
  - m_RefCount: 1
    m_Data: {fileID: 11400000, guid: 647d91639e6ac0e47b9ddcc9f04eaffc, type: 2}
  - m_RefCount: 1
    m_Data: {fileID: 11400000, guid: 57a38eed0212da740a84542aa5674e19, type: 2}
  - m_RefCount: 1
    m_Data: {fileID: 11400000, guid: 4f8db6756ea10e8429916f603bd2184c, type: 2}
  - m_RefCount: 1
    m_Data: {fileID: 11400000, guid: 92af1c8ff68c267439a10d15694a5b2e, type: 2}
  - m_RefCount: 1
    m_Data: {fileID: 11400000, guid: 4f102653c864deb4e8053cd53049652d, type: 2}
  - m_RefCount: 1
    m_Data: {fileID: 11400000, guid: fd26dd833900ecb41a5121fbf19acb2f, type: 2}
  - m_RefCount: 1
    m_Data: {fileID: 11400000, guid: 82adcaf9af59e994c91ee1d1db7c63b5, type: 2}
  - m_RefCount: 1
    m_Data: {fileID: 11400000, guid: 6d4819a12992cef48a41f34031450a78, type: 2}
  - m_RefCount: 1
    m_Data: {fileID: 11400000, guid: cd46b140a5b14214e84b071798c5a824, type: 2}
  - m_RefCount: 1
    m_Data: {fileID: 11400000, guid: 116b455a1f80d9549a57cae07b960b64, type: 2}
  - m_RefCount: 1
    m_Data: {fileID: 11400000, guid: dc639cb185a67a54283eec2378209c39, type: 2}
  - m_RefCount: 1
    m_Data: {fileID: 11400000, guid: 0f8cb5a198841664fadd2ffb1478fc06, type: 2}
  - m_RefCount: 1
    m_Data: {fileID: 11400000, guid: a6fc7f67997e45a41861fa82879f57cc, type: 2}
  - m_RefCount: 1
    m_Data: {fileID: 11400000, guid: ad858e14aa76e8d498e383ddacec1fd6, type: 2}
  - m_RefCount: 1
    m_Data: {fileID: 11400000, guid: 814b4319d76634148a5ba6e0bd6c2c6a, type: 2}
  - m_RefCount: 1
    m_Data: {fileID: 11400000, guid: bd782d2b506f211468e816cb46b9401e, type: 2}
  - m_RefCount: 1
    m_Data: {fileID: 11400000, guid: 25cdfda03e2842f439d479e82a7e79d6, type: 2}
  - m_RefCount: 1
    m_Data: {fileID: 11400000, guid: 5520c611193e86449a987dc8cd534f0c, type: 2}
  - m_RefCount: 1
    m_Data: {fileID: 11400000, guid: 10e93d18d06f21b4cbf767813f6309e0, type: 2}
  - m_RefCount: 1
    m_Data: {fileID: 11400000, guid: 2059d12bf4bad2b4d9127848d73fc3e3, type: 2}
  - m_RefCount: 1
    m_Data: {fileID: 11400000, guid: 8f6868d1a8ac9564595eec58b5e181ad, type: 2}
  - m_RefCount: 1
    m_Data: {fileID: 11400000, guid: 0b1010710fd889a47bcd6232f0083c50, type: 2}
  - m_RefCount: 1
    m_Data: {fileID: 11400000, guid: 616a8d659b9254c4d91fb9a4c760043e, type: 2}
  m_TileSpriteArray:
  - m_RefCount: 1
    m_Data: {fileID: -112777396, guid: d048d801c45f3c64bb2b60067527d6b5, type: 3}
  - m_RefCount: 1
    m_Data: {fileID: -1683330565, guid: d048d801c45f3c64bb2b60067527d6b5, type: 3}
  - m_RefCount: 1
    m_Data: {fileID: 975302028, guid: d048d801c45f3c64bb2b60067527d6b5, type: 3}
  - m_RefCount: 1
    m_Data: {fileID: 1202654487, guid: d048d801c45f3c64bb2b60067527d6b5, type: 3}
  - m_RefCount: 1
    m_Data: {fileID: -647126183, guid: d048d801c45f3c64bb2b60067527d6b5, type: 3}
  - m_RefCount: 1
    m_Data: {fileID: -1677427879, guid: d048d801c45f3c64bb2b60067527d6b5, type: 3}
  - m_RefCount: 1
    m_Data: {fileID: -23201458, guid: d048d801c45f3c64bb2b60067527d6b5, type: 3}
  - m_RefCount: 1
    m_Data: {fileID: 1387340129, guid: d048d801c45f3c64bb2b60067527d6b5, type: 3}
  - m_RefCount: 1
    m_Data: {fileID: -1517709664, guid: d048d801c45f3c64bb2b60067527d6b5, type: 3}
  - m_RefCount: 1
    m_Data: {fileID: -1616733990, guid: d048d801c45f3c64bb2b60067527d6b5, type: 3}
  - m_RefCount: 1
    m_Data: {fileID: -1639379602, guid: d048d801c45f3c64bb2b60067527d6b5, type: 3}
  - m_RefCount: 1
    m_Data: {fileID: -1502006384, guid: d048d801c45f3c64bb2b60067527d6b5, type: 3}
  - m_RefCount: 1
    m_Data: {fileID: 393747190, guid: d048d801c45f3c64bb2b60067527d6b5, type: 3}
  - m_RefCount: 1
    m_Data: {fileID: -1709973735, guid: d048d801c45f3c64bb2b60067527d6b5, type: 3}
  - m_RefCount: 1
    m_Data: {fileID: 865820944, guid: d048d801c45f3c64bb2b60067527d6b5, type: 3}
  - m_RefCount: 1
    m_Data: {fileID: 239129381, guid: d048d801c45f3c64bb2b60067527d6b5, type: 3}
  - m_RefCount: 1
    m_Data: {fileID: -271326446, guid: d048d801c45f3c64bb2b60067527d6b5, type: 3}
  - m_RefCount: 1
    m_Data: {fileID: 1314979179, guid: d048d801c45f3c64bb2b60067527d6b5, type: 3}
  - m_RefCount: 1
    m_Data: {fileID: -1363079576, guid: d048d801c45f3c64bb2b60067527d6b5, type: 3}
  - m_RefCount: 1
    m_Data: {fileID: -375364406, guid: d048d801c45f3c64bb2b60067527d6b5, type: 3}
  - m_RefCount: 1
    m_Data: {fileID: 247877174, guid: d048d801c45f3c64bb2b60067527d6b5, type: 3}
  - m_RefCount: 1
    m_Data: {fileID: -1412638388, guid: d048d801c45f3c64bb2b60067527d6b5, type: 3}
  - m_RefCount: 1
    m_Data: {fileID: -145407385, guid: d048d801c45f3c64bb2b60067527d6b5, type: 3}
  - m_RefCount: 1
    m_Data: {fileID: -526695173, guid: d048d801c45f3c64bb2b60067527d6b5, type: 3}
  - m_RefCount: 1
    m_Data: {fileID: 197296627, guid: d048d801c45f3c64bb2b60067527d6b5, type: 3}
  - m_RefCount: 1
    m_Data: {fileID: -861796859, guid: d048d801c45f3c64bb2b60067527d6b5, type: 3}
  - m_RefCount: 1
    m_Data: {fileID: 1494446149, guid: d048d801c45f3c64bb2b60067527d6b5, type: 3}
  - m_RefCount: 1
    m_Data: {fileID: -577604193, guid: d048d801c45f3c64bb2b60067527d6b5, type: 3}
  - m_RefCount: 1
    m_Data: {fileID: -717806046, guid: d048d801c45f3c64bb2b60067527d6b5, type: 3}
  - m_RefCount: 1
    m_Data: {fileID: -324653638, guid: d048d801c45f3c64bb2b60067527d6b5, type: 3}
  - m_RefCount: 1
    m_Data: {fileID: -1246939185, guid: d048d801c45f3c64bb2b60067527d6b5, type: 3}
  - m_RefCount: 1
    m_Data: {fileID: 1495921691, guid: d048d801c45f3c64bb2b60067527d6b5, type: 3}
  - m_RefCount: 1
    m_Data: {fileID: -1918364445, guid: d048d801c45f3c64bb2b60067527d6b5, type: 3}
  - m_RefCount: 1
    m_Data: {fileID: -704929570, guid: d048d801c45f3c64bb2b60067527d6b5, type: 3}
  - m_RefCount: 1
    m_Data: {fileID: 1025639449, guid: d048d801c45f3c64bb2b60067527d6b5, type: 3}
  - m_RefCount: 1
    m_Data: {fileID: -930840644, guid: d048d801c45f3c64bb2b60067527d6b5, type: 3}
  - m_RefCount: 1
    m_Data: {fileID: 1467425048, guid: d048d801c45f3c64bb2b60067527d6b5, type: 3}
  - m_RefCount: 1
    m_Data: {fileID: -986178817, guid: d048d801c45f3c64bb2b60067527d6b5, type: 3}
  - m_RefCount: 1
    m_Data: {fileID: -895968145, guid: d048d801c45f3c64bb2b60067527d6b5, type: 3}
  - m_RefCount: 1
    m_Data: {fileID: -546663533, guid: d048d801c45f3c64bb2b60067527d6b5, type: 3}
  - m_RefCount: 1
    m_Data: {fileID: -1497030535, guid: d048d801c45f3c64bb2b60067527d6b5, type: 3}
  - m_RefCount: 1
    m_Data: {fileID: 54700248, guid: d048d801c45f3c64bb2b60067527d6b5, type: 3}
  - m_RefCount: 1
    m_Data: {fileID: -1729669836, guid: d048d801c45f3c64bb2b60067527d6b5, type: 3}
  - m_RefCount: 1
    m_Data: {fileID: -54844990, guid: d048d801c45f3c64bb2b60067527d6b5, type: 3}
  m_TileMatrixArray:
  - m_RefCount: 44
    m_Data:
      e00: 1
      e01: 0
      e02: 0
      e03: 0
      e10: 0
      e11: 1
      e12: 0
      e13: 0
      e20: 0
      e21: 0
      e22: 1
      e23: 0
      e30: 0
      e31: 0
      e32: 0
      e33: 1
  m_TileColorArray:
  - m_RefCount: 44
    m_Data: {r: 1, g: 1, b: 1, a: 1}
  m_TileObjectToInstantiateArray: []
  m_AnimationFrameRate: 1
  m_Color: {r: 1, g: 1, b: 1, a: 1}
  m_Origin: {x: -2, y: -5, z: 0}
  m_Size: {x: 17, y: 6, z: 1}
  m_TileAnchor: {x: 0.5, y: 0.5, z: 0}
  m_TileOrientation: 0
  m_TileOrientationMatrix:
    e00: 1
    e01: 0
    e02: 0
    e03: 0
    e10: 0
    e11: 1
    e12: 0
    e13: 0
    e20: 0
    e21: 0
    e22: 1
    e23: 0
    e30: 0
    e31: 0
    e32: 0
    e33: 1
--- !u!483693784 &4800088440001801884
TilemapRenderer:
  m_ObjectHideFlags: 0
  m_CorrespondingSourceObject: {fileID: 0}
  m_PrefabInstance: {fileID: 0}
  m_PrefabAsset: {fileID: 0}
  m_GameObject: {fileID: 1419808729786965374}
  m_Enabled: 1
  m_CastShadows: 0
  m_ReceiveShadows: 0
  m_DynamicOccludee: 0
  m_StaticShadowCaster: 0
  m_MotionVectors: 1
  m_LightProbeUsage: 0
  m_ReflectionProbeUsage: 0
  m_RayTracingMode: 0
  m_RayTraceProcedural: 0
  m_RenderingLayerMask: 1
  m_RendererPriority: 0
  m_Materials:
  - {fileID: 10754, guid: 0000000000000000f000000000000000, type: 0}
  m_StaticBatchInfo:
    firstSubMesh: 0
    subMeshCount: 0
  m_StaticBatchRoot: {fileID: 0}
  m_ProbeAnchor: {fileID: 0}
  m_LightProbeVolumeOverride: {fileID: 0}
  m_ScaleInLightmap: 1
  m_ReceiveGI: 1
  m_PreserveUVs: 0
  m_IgnoreNormalsForChartDetection: 0
  m_ImportantGI: 0
  m_StitchLightmapSeams: 1
  m_SelectedEditorRenderState: 0
  m_MinimumChartSize: 4
  m_AutoUVMaxDistance: 0.5
  m_AutoUVMaxAngle: 89
  m_LightmapParameters: {fileID: 0}
  m_SortingLayerID: 0
  m_SortingLayer: 0
  m_SortingOrder: 0
  m_ChunkSize: {x: 32, y: 32, z: 32}
  m_ChunkCullingBounds: {x: 0, y: 0, z: 0}
  m_MaxChunkCount: 16
  m_MaxFrameAge: 16
  m_SortOrder: 0
  m_Mode: 0
  m_DetectChunkCullingBounds: 0
  m_MaskInteraction: 0
--- !u!1 &6939717698118468327
GameObject:
  m_ObjectHideFlags: 0
  m_CorrespondingSourceObject: {fileID: 0}
  m_PrefabInstance: {fileID: 0}
  m_PrefabAsset: {fileID: 0}
  serializedVersion: 6
  m_Component:
  - component: {fileID: 8338131448701475920}
  - component: {fileID: 299128071149428220}
  m_Layer: 0
  m_Name: Tile_48
  m_TagString: Untagged
  m_Icon: {fileID: 0}
  m_NavMeshLayer: 0
  m_StaticEditorFlags: 0
  m_IsActive: 1
--- !u!4 &8338131448701475920
Transform:
  m_ObjectHideFlags: 0
  m_CorrespondingSourceObject: {fileID: 0}
  m_PrefabInstance: {fileID: 0}
  m_PrefabAsset: {fileID: 0}
  m_GameObject: {fileID: 6939717698118468327}
  m_LocalRotation: {x: 0, y: 0, z: 0, w: 1}
  m_LocalPosition: {x: 0, y: 0, z: 0}
  m_LocalScale: {x: 1, y: 1, z: 1}
  m_ConstrainProportionsScale: 0
  m_Children:
  - {fileID: 6548043617485647392}
  m_Father: {fileID: 0}
  m_RootOrder: 0
  m_LocalEulerAnglesHint: {x: 0, y: 0, z: 0}
--- !u!156049354 &299128071149428220
Grid:
  m_ObjectHideFlags: 0
  m_CorrespondingSourceObject: {fileID: 0}
  m_PrefabInstance: {fileID: 0}
  m_PrefabAsset: {fileID: 0}
  m_GameObject: {fileID: 6939717698118468327}
  m_Enabled: 1
  m_CellSize: {x: 0.48, y: 0.48, z: 0}
  m_CellGap: {x: 0, y: 0, z: 0}
  m_CellLayout: 0
  m_CellSwizzle: 0
--- !u!114 &2889677076435829997
MonoBehaviour:
  m_ObjectHideFlags: 0
  m_CorrespondingSourceObject: {fileID: 0}
  m_PrefabInstance: {fileID: 0}
  m_PrefabAsset: {fileID: 0}
  m_GameObject: {fileID: 0}
  m_Enabled: 1
  m_EditorHideFlags: 0
  m_Script: {fileID: 12395, guid: 0000000000000000e000000000000000, type: 0}
  m_Name: Palette Settings
  m_EditorClassIdentifier: 
  cellSizing: 0
  m_TransparencySortMode: 0
  m_TransparencySortAxis: {x: 0, y: 0, z: 1}
